[
    {
        "id": "58f6a70e85e4c007812861f7",
        "balance": 10000000,
        "bankId": "58f6a70e85e4c007812861f6",
        "currency": "EUR",
        "accountNumber": "3500331015",
        "accountName": "TransferWise Ltd"
    },
    {
        "id": "58f6a70e85e4c007812861f9",
        "balance": 10000000,
        "bankId": "58f6a70e85e4c007812861f8",
        "currency": "INR",
        "accountNumber": "8457378746",
        "accountName": "TransferWise Ltd"
    },
    {
        "id": "58f6a70e85e4c007812861fa",
        "balance": 10000000,
        "bankId": "58f6a70e85e4c007812861f8",
        "currency": "GBP",
        "accountNumber": "0251622777",
        "accountName": "TransferWise Ltd"
    },
    {
        "id": "58f6a70e85e4c007812861fc",
        "balance": 10000000,
        "bankId": "58f6a70e85e4c007812861fb",
        "currency": "MXN",
        "accountNumber": "5014653474",
        "accountName": "TransferWise Ltd"
    },
    {
        "id": "58f6a70e85e4c007812861fe",
        "balance": 10000000,
        "bankId": "58f6a70e85e4c007812861fd",
        "currency": "USD",
        "accountNumber": "1408013278",
        "accountName": "TransferWise Ltd"
    },
    {
        "id": "58f6a70e85e4c00781286200",
        "balance": 10000000,
        "bankId": "58f6a70e85e4c007812861ff",
        "currency": "GBP",
        "accountNumber": "4703827772",
        "accountName": "TransferWise Ltd"
    },
    {
        "id": "58f6a70e85e4c00781286201",
        "balance": 0,
        "bankId": "58f6a70e85e4c007812861fd",
        "currency": "USD",
        "accountNumber": "7802445381",
        "accountName": "Customer 1"
    },
    {
        "id": "58f6a70e85e4c00781286203",
        "balance": 0,
        "bankId": "58f6a70e85e4c007812861f8",
        "currency": "GBP",
        "accountNumber": "2551365580",
        "accountName": "Customer 2"
    },
    {
        "id": "58f6a70e85e4c00781286205",
        "balance": 0,
        "bankId": "58f6a70e85e4c007812861f6",
        "currency": "EUR",
        "accountNumber": "3723483221",
        "accountName": "Customer 3"
    },
    {
        "id": "58f6a70e85e4c00781286207",
        "balance": 0,
        "bankId": "58f6a70e85e4c007812861fd",
        "currency": "USD",
        "accountNumber": "0821514144",
        "accountName": "Customer 4"
    },
    {
        "id": "58f6a70e85e4c00781286209",
        "balance": 0,
        "bankId": "58f6a70e85e4c007812861f8",
        "currency": "INR",
        "accountNumber": "3480424232",
        "accountName": "Customer 5"
    },
    {
        "id": "58f6a70e85e4c0078128620b",
        "balance": 0,
        "bankId": "58f6a70e85e4c007812861fd",
        "currency": "USD",
        "accountNumber": "2347673545",
        "accountName": "Customer 6"
    },
    {
        "id": "58f6a70e85e4c0078128620d",
        "balance": 0,
        "bankId": "58f6a70e85e4c007812861fd",
        "currency": "USD",
        "accountNumber": "1555053487",
        "accountName": "Customer 7"
    },
    {
        "id": "58f6a70e85e4c0078128620f",
        "balance": 0,
        "bankId": "58f6a70e85e4c007812861f6",
        "currency": "EUR",
        "accountNumber": "4764331053",
        "accountName": "Customer 8"
    },
    {
        "id": "58f6a70e85e4c00781286211",
        "balance": 0,
        "bankId": "58f6a70e85e4c007812861fb",
        "currency": "MXN",
        "accountNumber": "2135034121",
        "accountName": "Customer 9"
    },
    {
        "id": "58f6a70e85e4c00781286213",
        "balance": 0,
        "bankId": "58f6a70e85e4c007812861f6",
        "currency": "EUR",
        "accountNumber": "1308462101",
        "accountName": "Customer 10"
    },
    {
        "id": "58f6a70e85e4c00781286215",
        "balance": 0,
        "bankId": "58f6a70e85e4c007812861f6",
        "currency": "EUR",
        "accountNumber": "5114101341",
        "accountName": "Customer 11"
    },
    {
        "id": "58f6a70e85e4c00781286217",
        "balance": 0,
        "bankId": "58f6a70e85e4c007812861fb",
        "currency": "MXN",
        "accountNumber": "1017548858",
        "accountName": "Customer 12"
    },
    {
        "id": "58f6a70e85e4c00781286219",
        "balance": 0,
        "bankId": "58f6a70e85e4c007812861f6",
        "currency": "EUR",
        "accountNumber": "1502818356",
        "accountName": "Customer 13"
    },
    {
        "id": "58f6a70e85e4c0078128621b",
        "balance": 0,
        "bankId": "58f6a70e85e4c007812861f8",
        "currency": "GBP",
        "accountNumber": "3754524458",
        "accountName": "Customer 14"
    },
    {
        "id": "58f6a70e85e4c0078128621d",
        "balance": 0,
        "bankId": "58f6a70e85e4c007812861fd",
        "currency": "USD",
        "accountNumber": "1813524888",
        "accountName": "Customer 15"
    },
    {
        "id": "58f6a70e85e4c0078128621f",
        "balance": 0,
        "bankId": "58f6a70e85e4c007812861f6",
        "currency": "EUR",
        "accountNumber": "8217320456",
        "accountName": "Customer 16"
    },
    {
        "id": "58f6a70e85e4c00781286221",
        "balance": 0,
        "bankId": "58f6a70e85e4c007812861fd",
        "currency": "USD",
        "accountNumber": "8832336067",
        "accountName": "Customer 17"
    },
    {
        "id": "58f6a70e85e4c00781286223",
        "balance": 0,
        "bankId": "58f6a70e85e4c007812861f8",
        "currency": "GBP",
        "accountNumber": "7264308551",
        "accountName": "Customer 18"
    },
    {
        "id": "58f6a70e85e4c00781286225",
        "balance": 0,
        "bankId": "58f6a70e85e4c007812861fd",
        "currency": "USD",
        "accountNumber": "6201360326",
        "accountName": "Customer 19"
    },
    {
        "id": "58f6a70e85e4c00781286227",
        "balance": 0,
        "bankId": "58f6a70e85e4c007812861f6",
        "currency": "EUR",
        "accountNumber": "1520440218",
        "accountName": "Customer 20"
    }
]